^D:\WORKSPACE\TEST2\TEST2\DUPLICATE_MATRIX.CPP|D:\WORKSPACE\TEST2\TEST2\HANOI.CPP|D:\WORKSPACE\TEST2\TEST2\MAIN.CPP|D:\WORKSPACE\TEST2\TEST2\MEDIAN.CPP|D:\WORKSPACE\TEST2\TEST2\ROTATE.CPP|D:\WORKSPACE\TEST2\TEST2\TWOSUM.CPP|D:\WORKSPACE\TEST2\TEST2\WORD_PATTERN.CPP
D:\WORKSPACE\TEST2\TEST2\DEBUG\VC120.PDB
D:\WORKSPACE\TEST2\TEST2\DEBUG\VC120.IDB
D:\WORKSPACE\TEST2\TEST2\DEBUG\DUPLICATE_MATRIX.OBJ
D:\WORKSPACE\TEST2\TEST2\DEBUG\HANOI.OBJ
D:\WORKSPACE\TEST2\TEST2\DEBUG\MAIN.OBJ
D:\WORKSPACE\TEST2\TEST2\DEBUG\MEDIAN.OBJ
D:\WORKSPACE\TEST2\TEST2\DEBUG\ROTATE.OBJ
D:\WORKSPACE\TEST2\TEST2\DEBUG\TWOSUM.OBJ
D:\WORKSPACE\TEST2\TEST2\DEBUG\WORD_PATTERN.OBJ
^D:\WORKSPACE\TEST2\TEST2\DUPLICATE_MATRIX.CPP
D:\WORKSPACE\TEST2\TEST2\DEBUG\VC120.PDB
D:\WORKSPACE\TEST2\TEST2\DEBUG\VC120.IDB
D:\WORKSPACE\TEST2\TEST2\DEBUG\DUPLICATE_MATRIX.OBJ
^D:\WORKSPACE\TEST2\TEST2\HANOI.CPP
D:\WORKSPACE\TEST2\TEST2\DEBUG\VC120.PDB
^D:\WORKSPACE\TEST2\TEST2\MAIN.CPP
D:\WORKSPACE\TEST2\TEST2\DEBUG\VC120.PDB
D:\WORKSPACE\TEST2\TEST2\DEBUG\VC120.IDB
^D:\WORKSPACE\TEST2\TEST2\MEDIAN.CPP
D:\WORKSPACE\TEST2\TEST2\DEBUG\VC120.PDB
^D:\WORKSPACE\TEST2\TEST2\ROTATE.CPP
D:\WORKSPACE\TEST2\TEST2\DEBUG\VC120.PDB
D:\WORKSPACE\TEST2\TEST2\DEBUG\VC120.IDB
^D:\WORKSPACE\TEST2\TEST2\TWOSUM.CPP
D:\WORKSPACE\TEST2\TEST2\DEBUG\VC120.PDB
^D:\WORKSPACE\TEST2\TEST2\WORD_PATTERN.CPP
D:\WORKSPACE\TEST2\TEST2\DEBUG\VC120.PDB
^D:\WORKSPACE\TEST2\TEST2\MAIN.CPP|D:\WORKSPACE\TEST2\TEST2\ROTATE.CPP
D:\WORKSPACE\TEST2\TEST2\DEBUG\VC120.PDB
D:\WORKSPACE\TEST2\TEST2\DEBUG\VC120.IDB
D:\WORKSPACE\TEST2\TEST2\DEBUG\MAIN.OBJ
D:\WORKSPACE\TEST2\TEST2\DEBUG\ROTATE.OBJ
^D:\WORKSPACE\TEST2\TEST2\DUPLICATE_MATRIX.CPP|D:\WORKSPACE\TEST2\TEST2\MAIN.CPP
D:\WORKSPACE\TEST2\TEST2\DEBUG\VC120.PDB
D:\WORKSPACE\TEST2\TEST2\DEBUG\VC120.IDB
D:\WORKSPACE\TEST2\TEST2\DEBUG\DUPLICATE_MATRIX.OBJ
D:\WORKSPACE\TEST2\TEST2\DEBUG\MAIN.OBJ
^D:\WORKSPACE\TEST2\TEST2\HANOI.CPP|D:\WORKSPACE\TEST2\TEST2\MAIN.CPP
D:\WORKSPACE\TEST2\TEST2\DEBUG\VC120.PDB
D:\WORKSPACE\TEST2\TEST2\DEBUG\VC120.IDB
D:\WORKSPACE\TEST2\TEST2\DEBUG\HANOI.OBJ
D:\WORKSPACE\TEST2\TEST2\DEBUG\MAIN.OBJ
^D:\WORKSPACE\TEST2\TEST2\DUPLICATE_MATRIX.CPP|D:\WORKSPACE\TEST2\TEST2\MAIN.CPP|D:\WORKSPACE\TEST2\TEST2\ROTATE.CPP
D:\WORKSPACE\TEST2\TEST2\DEBUG\VC120.PDB
D:\WORKSPACE\TEST2\TEST2\DEBUG\VC120.IDB
D:\WORKSPACE\TEST2\TEST2\DEBUG\DUPLICATE_MATRIX.OBJ
^D:\WORKSPACE\TEST2\TEST2\MAIN.CPP|D:\WORKSPACE\TEST2\TEST2\MEDIAN.CPP|D:\WORKSPACE\TEST2\TEST2\ROTATE.CPP
D:\WORKSPACE\TEST2\TEST2\DEBUG\VC120.PDB
D:\WORKSPACE\TEST2\TEST2\DEBUG\VC120.IDB
D:\WORKSPACE\TEST2\TEST2\DEBUG\MEDIAN.OBJ
